{
  "templateexpress": {
    "registerRetryTime": 30000,
    "controlFormatMongoId": true,
    "logLevel": "debug",
    "authorizationService": {
      "name": "user",
      "addRoute": "users/privileges/{resource}/routes",
      "authorizationRoute": "users/users/isAuthorized",
      "authenticationRoute": "users/token",
      "registerAppRoute": "users/users/registerMicroService",
      "renewTokenRoute": "users/users/renewBotToken",
      "rolePrivilegeRoute": "users/roles/importPrivileges",
      "internalRequestRoute": "users/users?username={uuid}&enabled=true"
    },
    "paging": {
      "limitMax": 200,
      "defaultValue": 50
    }
  }
}
